module gitlab.com/qomarullah/proxy-dump

go 1.17

require (
	github.com/labstack/echo/v4 v4.7.2
	github.com/tylerb/graceful v1.2.15
	go.uber.org/zap v1.21.0
)

require (
	github.com/golang-jwt/jwt v3.2.2+incompatible // indirect
	github.com/labstack/gommon v0.3.1 // indirect
	github.com/mattn/go-colorable v0.1.11 // indirect
	github.com/mattn/go-isatty v0.0.14 // indirect
	github.com/valyala/bytebufferpool v1.0.0 // indirect
	github.com/valyala/fasttemplate v1.2.1 // indirect
	go.uber.org/atomic v1.7.0 // indirect
	go.uber.org/multierr v1.6.0 // indirect
	golang.org/x/crypto v0.0.0-20210817164053-32db794688a5 // indirect
	golang.org/x/net v0.0.0-20211015210444-4f30a5c0130f // indirect
	golang.org/x/sys v0.0.0-20211103235746-7861aae1554b // indirect
	golang.org/x/text v0.3.7 // indirect
	golang.org/x/time v0.0.0-20201208040808-7e3f01d25324 // indirect
)
